…
    #Part B of Question 2 Data Mining#
    musical_diversity=billboard%>% 
      filter(year>1958 & year<2021)%>%
      group_by(year,song_id)%>%
      summarize(count=n())%>%
      arrange(desc(count))

    ## `summarise()` has grouped output by 'year'. You can override using the `.groups` argument.

    musical_diversity

    ## # A tibble: 35,078 × 3
    ## # Groups:   year [62]
    ##     year song_id                                            count
    ##    <int> <chr>                                              <int>
    ##  1  1997 Foolish Games/You Were Meant For MeJewel              52
    ##  2  2013 RadioactiveImagine Dragons                            52
    ##  3  2020 Blinding LightsThe Weeknd                             52
    ##  4  2012 LightsEllie Goulding                                  51
    ##  5  2020 I HopeGabby Barrett Featuring Charlie Puth            51
    ##  6  1997 Barely BreathingDuncan Sheik                          50
    ##  7  2012 Somebody That I Used To KnowGotye Featuring Kimbra    50
    ##  8  2015 Uptown Funk!Mark Ronson Featuring Bruno Mars          50
    ##  9  2011 Rolling In The DeepAdele                              49
    ## 10  2014 All Of MeJohn Legend                                  49
    ## # … with 35,068 more rows

    actual_diversity=musical_diversity%>%
      group_by(year)%>%
      summarize(count=n())%>%
      arrange(desc(count))

    actual_diversity  

    ## # A tibble: 62 × 2
    ##     year count
    ##    <int> <int>
    ##  1  1966   832
    ##  2  1967   827
    ##  3  1964   811
    ##  4  2020   804
    ##  5  1965   800
    ##  6  1961   779
    ##  7  1968   772
    ##  8  1962   768
    ##  9  1969   762
    ## 10  1963   754
    ## # … with 52 more rows
…
    #Part C of Question 2 Data Mining#
    preliminary_hit=billboard%>% 
      group_by(song, performer)%>%
      summarize(count=n())%>%
      filter(count>=10)%>%
      arrange(desc(count))

    ## `summarise()` has grouped output by 'song'. You can override using the `.groups` argument.

    preliminary_hit

    ## # A tibble: 14,807 × 3
    ## # Groups:   song [13,112]
    ##    song                              performer                             count
    ##    <chr>                             <chr>                                 <int>
    ##  1 Radioactive                       Imagine Dragons                          87
    ##  2 Sail                              AWOLNATION                               79
    ##  3 Blinding Lights                   The Weeknd                               76
    ##  4 I'm Yours                         Jason Mraz                               76
    ##  5 How Do I Live                     LeAnn Rimes                              69
    ##  6 Counting Stars                    OneRepublic                              68
    ##  7 Party Rock Anthem                 LMFAO Featuring Lauren Bennett & Goo…    68
    ##  8 Foolish Games/You Were Meant For… Jewel                                    65
    ##  9 Rolling In The Deep               Adele                                    65
    ## 10 Before He Cheats                  Carrie Underwood                         64
    ## # … with 14,797 more rows
…
    olympics_top20 <- read.csv("olympics_top20.csv")

    #Part A of Question 3 Data Mining#
    women_height=olympics_top20%>%
      filter(sex=='F')%>%
      group_by(event)%>%
      select(event, height)%>%
      summarize(women_height_95pct=quantile(height,probs=0.95,na.rm=TRUE))%>%
      arrange(desc(women_height_95pct))

    women_height

    ## # A tibble: 132 × 2
    ##    event                                 women_height_95pct
    ##    <chr>                                              <dbl>
    ##  1 Basketball Women's Basketball                       198.
    ##  2 Volleyball Women's Volleyball                       193 
    ##  3 Athletics Women's Shot Put                          192.
    ##  4 Swimming Women's 200 metres Freestyle               191 
    ##  5 Athletics Women's Heptathlon                        189.
    ##  6 Athletics Women's Discus Throw                      188.
    ##  7 Athletics Women's High Jump                         188 
    ##  8 Rowing Women's Coxed Eights                         188 
    ##  9 Rowing Women's Double Sculls                        188.
    ## 10 Athletics Women's Triple Jump                       187.
    ## # … with 122 more rows
…
